<?xml version="1.0" encoding="UTF-8" standalone="no"?>
<!DOCTYPE svg PUBLIC "-//W3C//DTD SVG 1.1//EN"
 "http://www.w3.org/Graphics/SVG/1.1/DTD/svg11.dtd">
<!-- Generated by graphviz version 2.44.1 (0)
 -->
<!-- Pages: 1 -->
<svg width="884pt" height="248pt"
 viewBox="0.00 0.00 883.96 247.95" xmlns="http://www.w3.org/2000/svg" xmlns:xlink="http://www.w3.org/1999/xlink">
<g id="graph0" class="graph" transform="scale(1 1) rotate(0) translate(4 243.95)">
<polygon fill="white" stroke="transparent" points="-4,4 -4,-243.95 879.96,-243.95 879.96,4 -4,4"/>
<text text-anchor="middle" x="437.98" y="-224.75" font-family="Times,serif" font-size="14.00">Acciones del los Ref a partir de cambios una vez llenado el formulario</text>
<!-- cambioDeModalidad -->
<g id="node1" class="node">
<title>cambioDeModalidad</title>
<polygon fill="none" stroke="red" points="248.94,-205.45 16.94,-205.45 16.94,-152.45 248.94,-152.45 248.94,-205.45"/>
<text text-anchor="middle" x="132.94" y="-190.25" font-family="Times,serif" font-size="14.00">Cambio Asincrónico</text>
<text text-anchor="middle" x="132.94" y="-175.25" font-family="Times,serif" font-size="14.00"> o DA que no aceptaba cambio</text>
<text text-anchor="middle" x="132.94" y="-160.25" font-family="Times,serif" font-size="14.00">a Sincrónico</text>
</g>
<!-- DRCompletaformulario -->
<g id="node2" class="node">
<title>DRCompletaformulario</title>
<ellipse fill="none" stroke="black" cx="132.94" cy="-37.48" rx="132.87" ry="26.74"/>
<text text-anchor="middle" x="132.94" y="-41.28" font-family="Times,serif" font-size="14.00">DR completa formulario</text>
<text text-anchor="middle" x="132.94" y="-26.28" font-family="Times,serif" font-size="14.00">nuevamente</text>
</g>
<!-- cambioDeModalidad&#45;&gt;DRCompletaformulario -->
<g id="edge1" class="edge">
<title>cambioDeModalidad&#45;&gt;DRCompletaformulario</title>
<path fill="none" stroke="black" d="M132.94,-152.37C132.94,-130.59 132.94,-99.04 132.94,-74.66"/>
<polygon fill="black" stroke="black" points="136.44,-74.37 132.94,-64.37 129.44,-74.37 136.44,-74.37"/>
</g>
<!-- cambiodiadehorario -->
<g id="node3" class="node">
<title>cambiodiadehorario</title>
<polygon fill="none" stroke="red" points="453.94,-216.95 266.94,-178.95 453.94,-140.95 640.94,-178.95 453.94,-216.95"/>
<text text-anchor="middle" x="453.94" y="-182.75" font-family="Times,serif" font-size="14.00">Cambio de día, horarios</text>
<text text-anchor="middle" x="453.94" y="-167.75" font-family="Times,serif" font-size="14.00"> o medio</text>
</g>
<!-- modificamosnostros -->
<g id="node4" class="node">
<title>modificamosnostros</title>
<ellipse fill="none" stroke="black" cx="723.94" cy="-37.48" rx="152.06" ry="37.45"/>
<text text-anchor="middle" x="723.94" y="-48.78" font-family="Times,serif" font-size="14.00">Ref modifica el formulario y</text>
<text text-anchor="middle" x="723.94" y="-33.78" font-family="Times,serif" font-size="14.00"> aclaramos con color</text>
<text text-anchor="middle" x="723.94" y="-18.78" font-family="Times,serif" font-size="14.00"> en columna de referente</text>
</g>
<!-- cambiodiadehorario&#45;&gt;modificamosnostros -->
<g id="edge2" class="edge">
<title>cambiodiadehorario&#45;&gt;modificamosnostros</title>
<path fill="none" stroke="black" d="M505.36,-151.39C546.52,-130.12 604.79,-100.03 650.81,-76.25"/>
<polygon fill="black" stroke="black" points="652.56,-79.29 659.84,-71.59 649.35,-73.07 652.56,-79.29"/>
<text text-anchor="middle" x="651.44" y="-111.75" font-family="Times,serif" font-size="14.00">Sin tilde</text>
<text text-anchor="middle" x="651.44" y="-96.75" font-family="Times,serif" font-size="14.00">de gestion</text>
</g>
<!-- NOmodificamosnostros -->
<g id="node5" class="node">
<title>NOmodificamosnostros</title>
<ellipse fill="none" stroke="black" cx="434.94" cy="-37.48" rx="118.59" ry="26.74"/>
<text text-anchor="middle" x="434.94" y="-41.28" font-family="Times,serif" font-size="14.00">DR informa a gestión</text>
<text text-anchor="middle" x="434.94" y="-26.28" font-family="Times,serif" font-size="14.00"> con copia al Ref</text>
</g>
<!-- cambiodiadehorario&#45;&gt;NOmodificamosnostros -->
<g id="edge3" class="edge">
<title>cambiodiadehorario&#45;&gt;NOmodificamosnostros</title>
<path fill="none" stroke="black" d="M448.99,-141.67C446.17,-120.96 442.65,-95.08 439.83,-74.42"/>
<polygon fill="black" stroke="black" points="443.29,-73.88 438.47,-64.45 436.36,-74.83 443.29,-73.88"/>
<text text-anchor="middle" x="484.44" y="-111.75" font-family="Times,serif" font-size="14.00">Con tilde</text>
<text text-anchor="middle" x="484.44" y="-96.75" font-family="Times,serif" font-size="14.00">de gestion</text>
</g>
<!-- cambioDePropuesta -->
<g id="node6" class="node">
<title>cambioDePropuesta</title>
<polygon fill="none" stroke="red" points="770.44,-197.95 677.44,-197.95 677.44,-159.95 770.44,-159.95 770.44,-197.95"/>
<text text-anchor="middle" x="723.94" y="-182.75" font-family="Times,serif" font-size="14.00">Cambio de</text>
<text text-anchor="middle" x="723.94" y="-167.75" font-family="Times,serif" font-size="14.00"> propuesta</text>
</g>
<!-- cambioDePropuesta&#45;&gt;modificamosnostros -->
<g id="edge4" class="edge">
<title>cambioDePropuesta&#45;&gt;modificamosnostros</title>
<path fill="none" stroke="black" d="M723.94,-159.72C723.94,-140.9 723.94,-110.77 723.94,-85.26"/>
<polygon fill="black" stroke="black" points="727.44,-85.01 723.94,-75.01 720.44,-85.01 727.44,-85.01"/>
</g>
</g>
</svg>
